[{"id":1,"first_name":"Benn","last_name":"Myrkus","email":"bmyrkus0@facebook.com","password":"UkV3pNnqekkF"},{"id":2,"first_name":"Maurine","last_name":"MacTrustram","email":"mmactrustram1@thetimes.co.uk","password":"IrOCxP0sO0CM"},{"id":3,"first_name":"Salmon","last_name":"Tuson","email":"stuson2@samsung.com","password":"HVSGqo8GPtvT"},{"id":4,"first_name":"Shoshanna","last_name":"Fencott","email":"sfencott3@house.gov","password":"bUahafm4Wz"},
{"id":5,"first_name":"Birch","last_name":"Battaille","email":"bbattaille4@list-manage.com","password":"Gs9pkYSM"},
{"id":6,"first_name":"Juana","last_name":"Sandwich","email":"jsandwich5@shop-pro.jp","password":"8TFPuv"},
{"id":7,"first_name":"Joceline","last_name":"Le Marquand","email":"jlemarquand6@dell.com","password":"TqF3YGe"},
{"id":8,"first_name":"Jocelyne","last_name":"Van Waadenburg","email":"jvanwaadenburg7@yolasite.com","password":"PfrhopWPZu"},{"id":9,"first_name":"Zilvia","last_name":"Antos","email":"zantos8@reddit.com","password":"jXlQZMmGJM"},
{"id":10,"first_name":"Bernarr","last_name":"Remnant","email":"bremnanta@123-reg.co.uk","password":"7e6itFb0VaX"},{"id":11,"first_name":"Deloria","last_name":"Alfonsetti","email":"dalfonsettib@samsung.com","password":"pJgjlzH4"},{"id":12,"first_name":"Drusie","last_name":"Bubbings","email":"dbubbingsc@china.com.cn","password":"rmFoGzTLe8A"},{"id":13,"first_name":"Devin","last_name":"Petrelli","email":"dpetrellid@ca.gov","password":"hELFcdy1jhm"},{"id":14,"first_name":"Ax","last_name":"Stowell","email":"astowelle@google.cn","password":"Xr5HcMaX"},{"id":15,"first_name":"Bobby","last_name":"Flecknoe","email":"bflecknoef@godaddy.com","password":"m1dvntFq15"},{"id":16,"first_name":"Gayle","last_name":"Grendon","email":"ggrendong@youku.com","password":"KbMDf8vF2tVy"},
{"id":17,"first_name":"Jo","last_name":"Millson","email":"jmillsonh@pagesperso-orange.fr","password":"Uo2oA8hdhD"},{"id":18,"first_name":"Parrnell","last_name":"Hatton","email":"phattoni@delicious.com","password":"SdYulbU340"},{"id":19,"first_name":"Dona","last_name":"Moffett","email":"dmoffettj@liveinternet.ru","password":"w5AZbzsjbcX"},{"id":20,"first_name":"Margarette","last_name":"Blomefield","email":"mblomefieldk@illinois.edu","password":"EAaGA5Ov7"},{"id":21,"first_name":"Adriaens","last_name":"Espino","email":"aespinol@illinois.edu","password":"2MqRofZ"},{"id":22,"first_name":"Dayna","last_name":"Tarney","email":"dtarneym@constantcontact.com","password":"WEd9vW345o"},{"id":23,"first_name":"Alister","last_name":"Baglin","email":"abaglinn@nytimes.com","password":"vXBWWxypPnp6"},{"id":24,"first_name":"Fleurette","last_name":"Maulkin","email":"fmaulkino@cmu.edu","password":"dWYbIppr1"},{"id":25,"first_name":"Lindsy","last_name":"Kent","email":"lkentp@feedburner.com","password":"XyCWhRDVB"},
{"id":26,"first_name":"Marigold","last_name":"Baford","email":"mbafordq@cocolog-nifty.com","password":"4g9o5g005"},{"id":27,"first_name":"Royal","last_name":"Litherland","email":"rlitherlandr@google.co.uk","password":"fMiHzmStgi"},{"id":28,"first_name":"Rochell","last_name":"Stewart","email":"rstewarts@prweb.com","password":"78sjuFXpueXv"},{"id":29,"first_name":"Guillaume","last_name":"Camacho","email":"gcamachot@github.io","password":"Ktj3VQpw8DF"}]
